Airbnb Listings in Texas Data Analysis
…
# Apply the function to the entire "name" column
airbnb_2$name <- lapply(airbnb_2$name, add_star_if_needed)

airbnb_2 <- airbnb_2 |>
  separate(name, into = c("Type of House", "Ratings", "Bedroom", "Beds", "Baths"), sep = " · ")

Warning: Expected 5 pieces. Missing pieces filled with `NA` in 168 rows [72, 103, 124,
129, 193, 200, 216, 309, 316, 322, 463, 465, 507, 707, 817, 851, 868, 877,
1076, 1079, ...].

airbnb_2

# A tibble: 14,861 × 20
      id `Type of House`       Ratings Bedroom    Beds   Baths host_id host_name
   <dbl> <chr>                 <chr>   <chr>      <chr>  <chr>   <dbl> <chr>    
 1  5456 Guesthouse in Austin  ★4.84   1 bedroom  2 beds 1 ba…    8028 Sylvia   
 2  5769 Home in Austin        ★4.90   1 bedroom  1 bed  1 sh…    8186 Elizabeth
 3  6413 Guesthouse in Austin  ★4.97   Studio     1 bed  1 ba…   13879 Todd     
 4  6448 Guesthouse in Austin  ★4.97   1 bedroom  2 beds 1 ba…   14156 Amy      
 5  8502 Guest suite in Austin ★4.56   1 bedroom  1 bed  1 ba…   25298 Karen    
 6 13035 Home in Austin        ★5.0    2 bedrooms 2 beds 2 ba…   50793 Molly    
 7 18258 Bungalow in Austin    ★5.0    3 bedrooms 2 beds 2 ba…   39458 Billy    
 8 22828 Guesthouse in Austin  ★4.94   1 bedroom  1 bed  1 ba…   56488 David    
 9 22982 Guesthouse in Austin  ★4.91   2 bedrooms 2 beds 1 ba…   89031 Gina     
10 25028 Bungalow in Austin    ★4.94   2 bedrooms 2 beds 1 ba…  102862 Elana    
# ℹ 14,851 more rows
# ℹ 12 more variables: neighbourhood <dbl>, latitude <dbl>, longitude <dbl>,
#   room_type <chr>, price <dbl>, minimum_nights <dbl>,
#   number_of_reviews <dbl>, last_review <date>, reviews_per_month <dbl>,
#   calculated_host_listings_count <dbl>, availability_365 <dbl>,
#   number_of_reviews_ltm <dbl>

airbnb_2 <- airbnb_2 |>
  separate(`Type of House`, into = c("Type of House", "City"), sep = " in ")
airbnb_2

# A tibble: 14,861 × 21
      id `Type of House` City   Ratings Bedroom    Beds  Baths host_id host_name
   <dbl> <chr>           <chr>  <chr>   <chr>      <chr> <chr>   <dbl> <chr>    
 1  5456 Guesthouse      Austin ★4.84   1 bedroom  2 be… 1 ba…    8028 Sylvia   
 2  5769 Home            Austin ★4.90   1 bedroom  1 bed 1 sh…    8186 Elizabeth
 3  6413 Guesthouse      Austin ★4.97   Studio     1 bed 1 ba…   13879 Todd     
 4  6448 Guesthouse      Austin ★4.97   1 bedroom  2 be… 1 ba…   14156 Amy      
 5  8502 Guest suite     Austin ★4.56   1 bedroom  1 bed 1 ba…   25298 Karen    
 6 13035 Home            Austin ★5.0    2 bedrooms 2 be… 2 ba…   50793 Molly    
 7 18258 Bungalow        Austin ★5.0    3 bedrooms 2 be… 2 ba…   39458 Billy    
 8 22828 Guesthouse      Austin ★4.94   1 bedroom  1 bed 1 ba…   56488 David    
 9 22982 Guesthouse      Austin ★4.91   2 bedrooms 2 be… 1 ba…   89031 Gina     
10 25028 Bungalow        Austin ★4.94   2 bedrooms 2 be… 1 ba…  102862 Elana    
# ℹ 14,851 more rows
# ℹ 12 more variables: neighbourhood <dbl>, latitude <dbl>, longitude <dbl>,
#   room_type <chr>, price <dbl>, minimum_nights <dbl>,
#   number_of_reviews <dbl>, last_review <date>, reviews_per_month <dbl>,
#   calculated_host_listings_count <dbl>, availability_365 <dbl>,
#   number_of_reviews_ltm <dbl>

# Remove the star character from 'Ratings'
airbnb_2$Ratings <- gsub("★", "", airbnb_2$Ratings)
airbnb_2

# A tibble: 14,861 × 21
      id `Type of House` City   Ratings Bedroom    Beds  Baths host_id host_name
   <dbl> <chr>           <chr>  <chr>   <chr>      <chr> <chr>   <dbl> <chr>    
 1  5456 Guesthouse      Austin 4.84    1 bedroom  2 be… 1 ba…    8028 Sylvia   
 2  5769 Home            Austin 4.90    1 bedroom  1 bed 1 sh…    8186 Elizabeth
 3  6413 Guesthouse      Austin 4.97    Studio     1 bed 1 ba…   13879 Todd     
 4  6448 Guesthouse      Austin 4.97    1 bedroom  2 be… 1 ba…   14156 Amy      
 5  8502 Guest suite     Austin 4.56    1 bedroom  1 bed 1 ba…   25298 Karen    
 6 13035 Home            Austin 5.0     2 bedrooms 2 be… 2 ba…   50793 Molly    
 7 18258 Bungalow        Austin 5.0     3 bedrooms 2 be… 2 ba…   39458 Billy    
 8 22828 Guesthouse      Austin 4.94    1 bedroom  1 bed 1 ba…   56488 David    
 9 22982 Guesthouse      Austin 4.91    2 bedrooms 2 be… 1 ba…   89031 Gina     
10 25028 Bungalow        Austin 4.94    2 bedrooms 2 be… 1 ba…  102862 Elana    
# ℹ 14,851 more rows
# ℹ 12 more variables: neighbourhood <dbl>, latitude <dbl>, longitude <dbl>,
#   room_type <chr>, price <dbl>, minimum_nights <dbl>,
#   number_of_reviews <dbl>, last_review <date>, reviews_per_month <dbl>,
#   calculated_host_listings_count <dbl>, availability_365 <dbl>,
#   number_of_reviews_ltm <dbl>
…
airbnb_2

# A tibble: 14,693 × 21
      id `Type of House` City   Ratings Bedroom  Beds Baths    host_id host_name
   <dbl> <fct>           <fct>    <dbl>   <dbl> <dbl> <fct>      <dbl> <chr>    
 1  5456 Guesthouse      Austin    4.84       1     2 1 bath      8028 Sylvia   
 2  5769 Home            Austin    4.9        1     1 1 share…    8186 Elizabeth
 3  6413 Guesthouse      Austin    4.97       0     1 1 bath     13879 Todd     
 4  6448 Guesthouse      Austin    4.97       1     2 1 bath     14156 Amy      
 5  8502 Guest suite     Austin    4.56       1     1 1 bath     25298 Karen    
 6 13035 Home            Austin    5          2     2 2 baths    50793 Molly    
 7 18258 Bungalow        Austin    5          3     2 2 baths    39458 Billy    
 8 22828 Guesthouse      Austin    4.94       1     1 1 bath     56488 David    
 9 22982 Guesthouse      Austin    4.91       2     2 1 bath     89031 Gina     
10 25028 Bungalow        Austin    4.94       2     2 1 bath    102862 Elana    
# ℹ 14,683 more rows
# ℹ 12 more variables: neighbourhood <dbl>, latitude <dbl>, longitude <dbl>,
#   room_type <fct>, price <dbl>, minimum_nights <dbl>,
#   number_of_reviews <dbl>, last_review <date>, reviews_per_month <dbl>,
#   calculated_host_listings_count <dbl>, availability_365 <dbl>,
#   number_of_reviews_ltm <dbl>
…
# Number of Airbnb properties under each host_id's.

filtered <- airbnb_no_outliers%>%
  group_by(`host_id`) %>%
  summarize(count = n()) %>%
  arrange(desc(count))
filtered

# A tibble: 8,008 × 2
     host_id count
       <dbl> <int>
 1 107434423   136
 2 274552333   126
 3 263502162   112
 4   8167447    88
 5 464404919    84
 6  35817561    77
 7 501999514    56
 8 276920863    49
 9 414484382    47
10 475533011    47
# ℹ 7,998 more rows
…
Sunday is the day of week when people rate the Airbnb.

After that it gradually reduces during working days.

NA’s represent no date present in the dataset. It can be new property, no ratings.

# Top rated Hosts
ratings_value <- subset(airbnb_no_outliers,select= c(host_name, Ratings, City,`Type of House`,number_of_reviews_ltm ))

ratings_values_true <- ratings_value %>%
  filter(Ratings >= 0 & Ratings <= 5 & !(Ratings %in% c(10, 11))) %>%
  arrange(desc(Ratings))
ratings_values_true

# A tibble: 8,868 × 5
   host_name Ratings City   `Type of House` number_of_reviews_ltm
   <chr>       <dbl> <fct>  <fct>                           <dbl>
 1 Molly           5 Austin Home                                2
 2 Billy           5 Austin Bungalow                           15
 3 Belinda         5 Austin Home                                2
 4 Rachel          5 Austin Home                                3
 5 Tracy           5 Austin Loft                                1
 6 Eric            5 Austin Home                                1
 7 Janet           5 Austin Home                                0
 8 Julie           5 Austin Home                                8
 9 Teresa          5 Austin Home                                0
10 Mike            5 Austin Home                                0
# ℹ 8,858 more rows
…
Top 10 hosts are based in Austin area with ratings 5/5.

There are 2292 hosts with 5/5 ratings.

# Most popular type of house
popular_types <- ratings_values_true %>%
                       group_by(`Type of House`) %>%
                             summarise(count = n()) %>%
                                  arrange(desc(count))
popular_types

# A tibble: 38 × 2
   `Type of House` count
   <fct>           <int>
 1 Home             4228
 2 Rental unit      1791
 3 Condo             918
 4 Guesthouse        613
 5 Townhouse         291
 6 Guest suite       289
 7 Bungalow          227
 8 Tiny home          91
 9 Camper/RV          81
10 Loft               81
# ℹ 28 more rows
…
